^E:\PWR\SEM 4\PAMSI\LISTA5\L5\L5\DEBUG\L5.OBJ|E:\PWR\SEM 4\PAMSI\LISTA5\L5\L5\DEBUG\STDAFX.OBJ
E:\PWR\SEM 4\PAMSI\LISTA5\L5\DEBUG\L5.ILK
E:\PWR\SEM 4\PAMSI\LISTA5\L5\DEBUG\L5.EXE
E:\PWR\SEM 4\PAMSI\LISTA5\L5\DEBUG\L5.PDB
